{
  "streams": [
    {
      "title": "Stream Patch",
      "description": "i am  stream",
      "id": "1"
    },
    {
      "title": "I created this stream",
      "description": "This was made by me",
      "id": "2"
    },
    {
      "title": "New stream with id",
      "description": "My new stream edited",
      "id": "3"
    },
    {
      "title": " Hello world",
      "description": "Finally I got it",
      "userId": "107355103410312071479",
      "id": "2d233c80-4676-11e9-b795-af4b41aa9837"
    }
  ]
}